customer number, threshold S1, threshold S2,
40,31,36,

,center 1,center 2,center 3,center 4,center 5,center 6,center client1 (with reject),
throughputs,0.220557,3.596269,3.596269,3.517971,0.047936,0.094323,0.172621,
response times,7.000000,3.731640,0.112118,7.000000,0.050000,0.050000,7.010867,
system response times,174.358777,7.390998,11.010521,4.370190,834.389349,424.024087,222.763871,
cycle times,181.358777,11.122639,11.122639,11.370190,834.439349,424.074087,229.774738,